{
    "key": "group_5b3266172d217",
    "title": "Footer Call to Action",
    "fields": [
        {
            "key": "field_5b3269cb2bf02",
            "label": "Enable",
            "name": "enable_footer_cta",
            "aria-label": "",
            "type": "true_false",
            "instructions": "",
            "required": 0,
            "conditional_logic": 0,
            "wrapper": {
                "width": "",
                "class": "",
                "id": ""
            },
            "message": "Enable Callout Ad",
            "default_value": 0,
            "ui": 0,
            "ui_on_text": "",
            "ui_off_text": ""
        },
        {
            "key": "field_5b32665c1146a",
            "label": "Heading",
            "name": "cta_heading",
            "aria-label": "",
            "type": "text",
            "instructions": "",
            "required": 0,
            "conditional_logic": 0,
            "wrapper": {
                "width": "",
                "class": "",
                "id": ""
            },
            "default_value": "PROCESS PILOT FAMILY OF PRODUCTS",
            "placeholder": "",
            "prepend": "",
            "append": "",
            "maxlength": ""
        },
        {
            "key": "field_5b3266701146b",
            "label": "Subheading",
            "name": "cta_subheading",
            "aria-label": "",
            "type": "text",
            "instructions": "60 Character Limit",
            "required": 0,
            "conditional_logic": 0,
            "wrapper": {
                "width": "",
                "class": "",
                "id": ""
            },
            "default_value": "A better way to manage PET bottle manufacturing.",
            "placeholder": "",
            "prepend": "",
            "append": "",
            "maxlength": 60
        },
        {
            "key": "field_5b3266921146c",
            "label": "Link",
            "name": "cta_link",
            "aria-label": "",
            "type": "url",
            "instructions": "",
            "required": 0,
            "conditional_logic": 0,
            "wrapper": {
                "width": "",
                "class": "",
                "id": ""
            },
            "default_value": "",
            "placeholder": ""
        },
        {
            "key": "field_5b3266ad1146d",
            "label": "Link Text",
            "name": "cta_link_text",
            "aria-label": "",
            "type": "text",
            "instructions": "",
            "required": 0,
            "conditional_logic": 0,
            "wrapper": {
                "width": "",
                "class": "",
                "id": ""
            },
            "default_value": "Read the Full Story",
            "placeholder": "",
            "prepend": "",
            "append": "",
            "maxlength": ""
        }
    ],
    "location": [
        [
            {
                "param": "post_type",
                "operator": "==",
                "value": "product"
            }
        ]
    ],
    "menu_order": 0,
    "position": "normal",
    "style": "default",
    "label_placement": "top",
    "instruction_placement": "label",
    "hide_on_screen": "",
    "active": true,
    "description": "",
    "show_in_rest": false,
    "modified": 1680320128,
    "acfml_field_group_mode": "advanced"
}