{
    "key": "group_577d1ada81d64",
    "title": "Ads",
    "fields": [
        {
            "key": "field_577d1aea33e7b",
            "label": "Placement",
            "name": "placement",
            "aria-label": "",
            "type": "radio",
            "instructions": "Choose where you wish to display the ad.",
            "required": 1,
            "conditional_logic": 0,
            "wrapper": {
                "width": "",
                "class": "",
                "id": ""
            },
            "choices": {
                "sidebar": "Sidebar",
                "footer": "Footer"
            },
            "other_choice": 0,
            "save_other_choice": 0,
            "default_value": "",
            "layout": "vertical",
            "allow_null": 0,
            "return_format": "value"
        },
        {
            "key": "field_577d1c4d33e7c",
            "label": "Sidebar Graphic",
            "name": "sidebar_graphic",
            "aria-label": "",
            "type": "image",
            "instructions": "Minimum width of 250 pixels.",
            "required": 0,
            "conditional_logic": [
                [
                    {
                        "field": "field_577d1aea33e7b",
                        "operator": "==",
                        "value": "sidebar"
                    }
                ]
            ],
            "wrapper": {
                "width": "",
                "class": "",
                "id": ""
            },
            "return_format": "url",
            "preview_size": "full",
            "library": "all",
            "min_width": 250,
            "min_height": "",
            "min_size": "",
            "max_width": "",
            "max_height": "",
            "max_size": "",
            "mime_types": ""
        },
        {
            "key": "field_577d1d4a33e7d",
            "label": "Footer Graphic",
            "name": "footer_graphic",
            "aria-label": "",
            "type": "image",
            "instructions": "Minimum width of 1200 pixels.",
            "required": 0,
            "conditional_logic": [
                [
                    {
                        "field": "field_577d1aea33e7b",
                        "operator": "==",
                        "value": "footer"
                    }
                ]
            ],
            "wrapper": {
                "width": "",
                "class": "",
                "id": ""
            },
            "return_format": "url",
            "preview_size": "full",
            "library": "all",
            "min_width": 1200,
            "min_height": "",
            "min_size": "",
            "max_width": "",
            "max_height": "",
            "max_size": "",
            "mime_types": ""
        },
        {
            "key": "field_577d1e549b97d",
            "label": "Alternative Text",
            "name": "alternative_text",
            "aria-label": "",
            "type": "textarea",
            "instructions": "Add the text that is displayed in the graphic. This text is presented to visually impaired users and found by search engines.",
            "required": 0,
            "conditional_logic": 0,
            "wrapper": {
                "width": "",
                "class": "",
                "id": ""
            },
            "default_value": "",
            "placeholder": "",
            "maxlength": "",
            "rows": "",
            "new_lines": "wpautop",
            "readonly": 0,
            "disabled": 0
        },
        {
            "key": "field_577d1d7233e7e",
            "label": "Link",
            "name": "link",
            "aria-label": "",
            "type": "url",
            "instructions": "",
            "required": 0,
            "conditional_logic": 0,
            "wrapper": {
                "width": "",
                "class": "",
                "id": ""
            },
            "default_value": "",
            "placeholder": ""
        },
        {
            "key": "field_577d1d8333e7f",
            "label": "Open Link in New Window",
            "name": "open_link_in_new_window",
            "aria-label": "",
            "type": "radio",
            "instructions": "",
            "required": 0,
            "conditional_logic": 0,
            "wrapper": {
                "width": "",
                "class": "",
                "id": ""
            },
            "choices": {
                "no": "No",
                "yes": "Yes"
            },
            "other_choice": 0,
            "save_other_choice": 0,
            "default_value": "no",
            "layout": "vertical",
            "allow_null": 0,
            "return_format": "value"
        },
        {
            "key": "field_577d235769c26",
            "label": "Assign",
            "name": "assign",
            "aria-label": "",
            "type": "relationship",
            "instructions": "Assign the pages where you want this ad to display.",
            "required": 0,
            "conditional_logic": 0,
            "wrapper": {
                "width": "",
                "class": "",
                "id": ""
            },
            "post_type": [
                "post",
                "product",
                "page",
                "tribe_events"
            ],
            "taxonomy": [],
            "filters": [
                "search",
                "post_type"
            ],
            "elements": "",
            "min": "",
            "max": "",
            "return_format": "object"
        }
    ],
    "location": [
        [
            {
                "param": "post_type",
                "operator": "==",
                "value": "ads"
            }
        ]
    ],
    "menu_order": 0,
    "position": "normal",
    "style": "default",
    "label_placement": "top",
    "instruction_placement": "label",
    "hide_on_screen": [
        "permalink",
        "the_content",
        "excerpt",
        "custom_fields",
        "discussion",
        "comments",
        "slug",
        "format",
        "page_attributes",
        "featured_image",
        "categories",
        "tags",
        "send-trackbacks"
    ],
    "active": 1,
    "description": "",
    "show_in_rest": false,
    "modified": 1680320128,
    "local_file": "\/home\/customer\/www\/agrintl.com\/public_html\/wp-content\/themes\/agr\/acf-json\/group_577d1ada81d64.json",
    "acfml_field_group_mode": "advanced"
}