{
    "key": "group_54ecac8a554e6",
    "title": "Google Analytics",
    "fields": [
        {
            "key": "field_54ecac97020d5",
            "label": "Tracking Code",
            "name": "tracking_code",
            "aria-label": "",
            "type": "textarea",
            "instructions": "",
            "required": 0,
            "conditional_logic": 0,
            "wrapper": {
                "width": "",
                "class": "",
                "id": ""
            },
            "default_value": "",
            "placeholder": "",
            "maxlength": "",
            "rows": "",
            "new_lines": "",
            "readonly": 0,
            "disabled": 0
        }
    ],
    "location": [
        [
            {
                "param": "options_page",
                "operator": "==",
                "value": "acf-options-google-analytics"
            }
        ]
    ],
    "menu_order": 0,
    "position": "normal",
    "style": "default",
    "label_placement": "top",
    "instruction_placement": "label",
    "hide_on_screen": "",
    "active": 1,
    "description": "",
    "show_in_rest": false,
    "modified": 1680320128,
    "local_file": "\/home\/customer\/www\/agrintl.com\/public_html\/wp-content\/themes\/agr\/acf-json\/group_54ecac8a554e6.json",
    "acfml_field_group_mode": "advanced"
}