{
    "key": "group_58ff915478225",
    "title": "Product Filter",
    "fields": [
        {
            "key": "field_58ff915494af6",
            "label": "Product Type (Spanish)",
            "name": "product_type",
            "aria-label": "",
            "type": "checkbox",
            "instructions": "",
            "required": 0,
            "conditional_logic": 0,
            "wrapper": {
                "width": "",
                "class": "",
                "id": ""
            },
            "choices": {
                "laboratory": "Laboratorio",
                "online": "En Linea",
                "manual-gauges": "Medidores Manuales"
            },
            "allow_custom": 0,
            "save_custom": 0,
            "default_value": [],
            "layout": "vertical",
            "toggle": 0,
            "return_format": "value"
        },
        {
            "key": "field_58ff915494b66",
            "label": "Product Application (Spanish)",
            "name": "product_application",
            "aria-label": "",
            "type": "checkbox",
            "instructions": "",
            "required": 0,
            "conditional_logic": 0,
            "wrapper": {
                "width": "",
                "class": "",
                "id": ""
            },
            "choices": {
                "thickness": "Espesor",
                "pressure": "Presión",
                "dimensional": "Dimensiones",
                "attribute-testing": "Análisis de atributos",
                "strain-measurement": "Medición de presión",
                "surface-treatment": "Tratamiento de la superficie",
                "container-handling": "Manipulación del contenedor",
                "volume": "Volumen",
                "sampling": "Muestreo",
                "process-control": "Control de proceso",
                "vision-systems": "Tiempo de vida de anaquel",
                "shelf-life": "Shelf-Life"
            },
            "allow_custom": 0,
            "save_custom": 0,
            "default_value": [],
            "layout": "vertical",
            "toggle": 0,
            "return_format": "value"
        },
        {
            "key": "field_58ff915494ba6",
            "label": "Product Material (Spanish)",
            "name": "product_material",
            "aria-label": "",
            "type": "checkbox",
            "instructions": "",
            "required": 0,
            "conditional_logic": 0,
            "wrapper": {
                "width": "",
                "class": "",
                "id": ""
            },
            "choices": {
                "glass": "Vidrio",
                "aluminum": "Aluminio",
                "plastic-polyolefin": "Plástico – Poliolefina",
                "plastic-pet": "Plástico – PET"
            },
            "allow_custom": 0,
            "save_custom": 0,
            "default_value": [],
            "layout": "vertical",
            "toggle": 0,
            "return_format": "value"
        },
        {
            "key": "field_58ff915494c14",
            "label": "Product Packages (Spanish)",
            "name": "product_packages",
            "aria-label": "",
            "type": "checkbox",
            "instructions": "",
            "required": 0,
            "conditional_logic": 0,
            "wrapper": {
                "width": "",
                "class": "",
                "id": ""
            },
            "choices": {
                "glass-coating-package": "Vidrio - Paquete de revestimiento",
                "glass-basic-package": "Vidrio - Paquete básico",
                "glass-professional-package": "Vidrio - Paquete profesional",
                "pet-bottles-basic-package": "Vidrio - Paquete básico",
                "pet-bottles-standard-package": "Botellas de PET - Paquete estándar",
                "pet-bottles-professional-package": "Botellas de PET - Paquete profesional",
                "pet-preforms-standard-package": "Preformas de PET - Paquete estándar"
            },
            "allow_custom": 0,
            "save_custom": 0,
            "default_value": [],
            "layout": "vertical",
            "toggle": 0,
            "return_format": "value"
        }
    ],
    "location": [
        [
            {
                "param": "post_type",
                "operator": "==",
                "value": "product"
            }
        ]
    ],
    "menu_order": 0,
    "position": "side",
    "style": "default",
    "label_placement": "top",
    "instruction_placement": "label",
    "hide_on_screen": "",
    "active": true,
    "description": "",
    "show_in_rest": false,
    "acfml_field_group_mode": "advanced",
    "modified": 1680320129
}