{
    "key": "group_564f3633c0ac7",
    "title": "Homepage",
    "fields": [
        {
            "key": "field_56e84ab29bbec",
            "label": "Slideshow",
            "name": "slideshow",
            "aria-label": "",
            "type": "repeater",
            "instructions": "",
            "required": 0,
            "conditional_logic": 0,
            "wrapper": {
                "width": "",
                "class": "",
                "id": ""
            },
            "wpml_cf_preferences": 1,
            "collapsed": "field_56e84b159bbf0",
            "min": 0,
            "max": 0,
            "layout": "block",
            "button_label": "Add Slide",
            "sub_fields": [
                {
                    "key": "field_56e84b4b9bbf4",
                    "label": "Display",
                    "name": "display",
                    "aria-label": "",
                    "type": "radio",
                    "instructions": "Choose whether or not to show this slide",
                    "required": 0,
                    "conditional_logic": 0,
                    "wrapper": {
                        "width": "",
                        "class": "",
                        "id": ""
                    },
                    "choices": {
                        "show": "Show",
                        "hide": "Hide"
                    },
                    "other_choice": 0,
                    "save_other_choice": 0,
                    "default_value": "show",
                    "layout": "horizontal",
                    "allow_null": 0,
                    "return_format": "value",
                    "parent_repeater": "field_56e84ab29bbec"
                },
                {
                    "key": "field_56e84ac29bbed",
                    "label": "Photo Position",
                    "name": "photo_position",
                    "aria-label": "",
                    "type": "radio",
                    "instructions": "",
                    "required": 0,
                    "conditional_logic": 0,
                    "wrapper": {
                        "width": "",
                        "class": "",
                        "id": ""
                    },
                    "choices": {
                        "left": "Left",
                        "right": "Right"
                    },
                    "other_choice": 0,
                    "save_other_choice": 0,
                    "default_value": "left",
                    "layout": "horizontal",
                    "allow_null": 0,
                    "return_format": "value",
                    "parent_repeater": "field_56e84ab29bbec"
                },
                {
                    "key": "field_56e84ae49bbee",
                    "label": "Background Color",
                    "name": "background_color",
                    "aria-label": "",
                    "type": "radio",
                    "instructions": "",
                    "required": 0,
                    "conditional_logic": 0,
                    "wrapper": {
                        "width": "",
                        "class": "",
                        "id": ""
                    },
                    "choices": {
                        "blue": "Blue",
                        "orange": "Orange",
                        "green": "Green"
                    },
                    "other_choice": 0,
                    "save_other_choice": 0,
                    "default_value": "blue",
                    "layout": "horizontal",
                    "allow_null": 0,
                    "return_format": "value",
                    "parent_repeater": "field_56e84ab29bbec"
                },
                {
                    "key": "field_56e84b039bbef",
                    "label": "Photo",
                    "name": "photo",
                    "aria-label": "",
                    "type": "image",
                    "instructions": "",
                    "required": 0,
                    "conditional_logic": 0,
                    "wrapper": {
                        "width": "",
                        "class": "",
                        "id": ""
                    },
                    "return_format": "url",
                    "preview_size": "medium",
                    "library": "uploadedTo",
                    "min_width": "",
                    "min_height": "",
                    "min_size": "",
                    "max_width": "",
                    "max_height": "",
                    "max_size": "",
                    "mime_types": "",
                    "parent_repeater": "field_56e84ab29bbec"
                },
                {
                    "key": "field_56e84b159bbf0",
                    "label": "Heading",
                    "name": "heading",
                    "aria-label": "",
                    "type": "text",
                    "instructions": "",
                    "required": 0,
                    "conditional_logic": 0,
                    "wrapper": {
                        "width": "",
                        "class": "",
                        "id": ""
                    },
                    "default_value": "",
                    "placeholder": "",
                    "prepend": "",
                    "append": "",
                    "maxlength": "",
                    "readonly": 0,
                    "disabled": 0,
                    "parent_repeater": "field_56e84ab29bbec"
                },
                {
                    "key": "field_56e84b2a9bbf1",
                    "label": "Subheading",
                    "name": "subheading",
                    "aria-label": "",
                    "type": "text",
                    "instructions": "",
                    "required": 0,
                    "conditional_logic": 0,
                    "wrapper": {
                        "width": "",
                        "class": "",
                        "id": ""
                    },
                    "default_value": "",
                    "placeholder": "",
                    "prepend": "",
                    "append": "",
                    "maxlength": "",
                    "readonly": 0,
                    "disabled": 0,
                    "parent_repeater": "field_56e84ab29bbec"
                },
                {
                    "key": "field_56e84b309bbf2",
                    "label": "Link",
                    "name": "link",
                    "aria-label": "",
                    "type": "url",
                    "instructions": "",
                    "required": 0,
                    "conditional_logic": 0,
                    "wrapper": {
                        "width": "",
                        "class": "",
                        "id": ""
                    },
                    "default_value": "",
                    "placeholder": "",
                    "parent_repeater": "field_56e84ab29bbec"
                },
                {
                    "key": "field_56e84b379bbf3",
                    "label": "Link Text",
                    "name": "link_text",
                    "aria-label": "",
                    "type": "text",
                    "instructions": "",
                    "required": 0,
                    "conditional_logic": 0,
                    "wrapper": {
                        "width": "",
                        "class": "",
                        "id": ""
                    },
                    "default_value": "Learn More",
                    "placeholder": "",
                    "prepend": "",
                    "append": "",
                    "maxlength": "",
                    "readonly": 0,
                    "disabled": 0,
                    "parent_repeater": "field_56e84ab29bbec"
                }
            ],
            "rows_per_page": 20
        },
        {
            "key": "field_56cc7251b1e36",
            "label": "Content",
            "name": "content",
            "aria-label": "",
            "type": "wysiwyg",
            "instructions": "",
            "required": 0,
            "conditional_logic": 0,
            "wrapper": {
                "width": "",
                "class": "",
                "id": ""
            },
            "default_value": "",
            "tabs": "all",
            "toolbar": "full",
            "media_upload": 1,
            "delay": 0
        },
        {
            "key": "field_56cc72bb61367",
            "label": "Services",
            "name": "services",
            "aria-label": "",
            "type": "wysiwyg",
            "instructions": "",
            "required": 0,
            "conditional_logic": 0,
            "wrapper": {
                "width": "",
                "class": "",
                "id": ""
            },
            "default_value": "",
            "tabs": "all",
            "toolbar": "full",
            "media_upload": 0,
            "delay": 0
        }
    ],
    "location": [
        [
            {
                "param": "page_template",
                "operator": "==",
                "value": "page-home.php"
            }
        ]
    ],
    "menu_order": 0,
    "position": "normal",
    "style": "default",
    "label_placement": "top",
    "instruction_placement": "label",
    "hide_on_screen": [
        "permalink",
        "the_content",
        "excerpt",
        "discussion",
        "comments",
        "slug",
        "author",
        "format",
        "featured_image",
        "categories",
        "tags",
        "send-trackbacks"
    ],
    "active": true,
    "description": "",
    "show_in_rest": 0,
    "modified": 1680320128,
    "local_file": "\/home\/customer\/www\/agrintl.com\/public_html\/wp-content\/themes\/agr\/acf-json\/group_564f3633c0ac7.json",
    "acfml_field_group_mode": "advanced"
}