{
    "key": "group_58ff93cf6f7e3",
    "title": "Product Info",
    "fields": false,
    "location": [
        [
            {
                "param": "options_page",
                "operator": "==",
                "value": "acf-options-product-info-pop-up"
            }
        ]
    ],
    "menu_order": 0,
    "position": "normal",
    "style": "default",
    "label_placement": "top",
    "instruction_placement": "label",
    "hide_on_screen": "",
    "active": 1,
    "description": "",
    "modified": 1493144527
}