<?xml version="1.0" encoding="UTF-8" standalone="no"?>
<svg width="62px" height="62px" viewBox="0 0 62 62" version="1.1" xmlns="http://www.w3.org/2000/svg" xmlns:xlink="http://www.w3.org/1999/xlink" xmlns:sketch="http://www.bohemiancoding.com/sketch/ns">
    <!-- Generator: Sketch 3.5.2 (25235) - http://www.bohemiancoding.com/sketch -->
    <title>Oval 19 Copy 2 + Page 1</title>
    <desc>Created with Sketch.</desc>
    <defs></defs>
    <g id="Page-1" stroke="none" stroke-width="1" fill="none" fill-rule="evenodd" sketch:type="MSPage">
        <g id="Approved-Homepage" sketch:type="MSArtboardGroup" transform="translate(-837.000000, -1213.000000)">
            <g id="Oval-19-Copy-2-+-Page-1" sketch:type="MSLayerGroup" transform="translate(839.000000, 1215.000000)">
                <ellipse id="Oval-19-Copy-2" stroke="#FFFFFF" stroke-width="2.5" fill="#E67202" sketch:type="MSShapeGroup" cx="29.2165352" cy="29.0941738" rx="29.2165352" ry="29.0941738"></ellipse>
                <g id="Page-1" transform="translate(15.792722, 9.435948)" fill="#FFFFFF" sketch:type="MSShapeGroup">
                    <path d="M4.91706391,11.4992756 L21.2735858,11.4992756 L21.2735858,9.92661757 L4.91706391,9.92661757 L4.91706391,11.4992756 Z" id="Fill-1"></path>
                    <path d="M4.91706391,15.4309207 L21.2735858,15.4309207 L21.2735858,13.8582627 L4.91706391,13.8582627 L4.91706391,15.4309207 Z" id="Fill-2"></path>
                    <path d="M4.91706391,19.3625658 L21.2735858,19.3625658 L21.2735858,17.7899078 L4.91706391,17.7899078 L4.91706391,19.3625658 Z" id="Fill-3"></path>
                    <path d="M4.91706391,23.2942109 L21.2735858,23.2942109 L21.2735858,21.7215529 L4.91706391,21.7215529 L4.91706391,23.2942109 Z" id="Fill-4"></path>
                    <path d="M4.91706391,27.225856 L21.2735858,27.225856 L21.2735858,25.653198 L4.91706391,25.653198 L4.91706391,27.225856 Z" id="Fill-5"></path>
                    <path d="M4.91706391,31.1575011 L21.2735858,31.1575011 L21.2735858,29.5848431 L4.91706391,29.5848431 L4.91706391,31.1575011 Z" id="Fill-6"></path>
                    <g id="Group-11">
                        <path d="M20.9987924,3.94697852 C21.3004334,4.54616124 21.4899461,5.20982293 21.5396932,5.91280108 L24.2149802,5.91280108 L24.2149802,33.5035138 C24.2149802,33.8903877 23.8991258,34.2049193 23.5098352,34.2049193 L2.67923524,34.2049193 C2.28994465,34.2049193 1.97409022,33.8903877 1.97409022,33.5035138 L1.97409022,5.91280108 L4.64937728,5.91280108 C4.69991399,5.20982293 4.88863701,4.54616124 5.19027799,3.94697852 L0,3.94697852 L0,33.5035138 C0,34.9747354 1.20103649,36.1707418 2.67923524,36.1707418 L23.5098352,36.1707418 C24.9880339,36.1707418 26.1890704,34.9747354 26.1890704,33.5035138 L26.1890704,3.94697852 L20.9987924,3.94697852 Z" id="Fill-7"></path>
                        <path d="M13.0640553,3.70392422 C12.6265969,3.70392422 12.2728399,3.35086249 12.2728399,2.91602254 C12.2728399,2.48039627 12.6265969,2.12733453 13.0640553,2.12733453 C13.500724,2.12733453 13.8552706,2.48039627 13.8552706,2.91602254 C13.8552706,3.35086249 13.500724,3.70392422 13.0640553,3.70392422 M16.2999839,2.62114916 L15.3042528,2.62114916 C15.1573805,1.51321157 14.2161343,0.655326607 13.0640553,0.655326607 C11.9119762,0.655326607 10.9699404,1.51321157 10.8238577,2.62114916 L9.88892856,2.62114916 C7.85719491,2.62114916 6.21001404,4.2614315 6.21001404,6.28465607 L6.21001404,7.25577241 L19.9788985,7.25577241 L19.9788985,6.28465607 C19.9788985,4.2614315 18.3325072,2.62114916 16.2999839,2.62114916" id="Fill-9"></path>
                    </g>
                </g>
            </g>
        </g>
    </g>
</svg>