<?xml version="1.0" encoding="UTF-8" standalone="no"?>
<svg width="62px" height="62px" viewBox="0 0 62 62" version="1.1" xmlns="http://www.w3.org/2000/svg" xmlns:xlink="http://www.w3.org/1999/xlink" xmlns:sketch="http://www.bohemiancoding.com/sketch/ns">
    <!-- Generator: Sketch 3.5.2 (25235) - http://www.bohemiancoding.com/sketch -->
    <title>Oval 19 Copy 5 + Page 1</title>
    <desc>Created with Sketch.</desc>
    <defs>
        <path id="path-1" d="M0,0.376651601 L37.0102434,0.376651601 L37.0102434,34.5984769 L0,34.5984769"></path>
    </defs>
    <g id="Page-1" stroke="none" stroke-width="1" fill="none" fill-rule="evenodd" sketch:type="MSPage">
        <g id="Approved-Homepage" sketch:type="MSArtboardGroup" transform="translate(-837.000000, -1134.000000)">
            <g id="Oval-19-Copy-5-+-Page-1" sketch:type="MSLayerGroup" transform="translate(839.000000, 1136.000000)">
                <ellipse id="Oval-19-Copy-5" stroke="#FFFFFF" stroke-width="2.5" fill="#E67202" sketch:type="MSShapeGroup" cx="29.2165352" cy="29.0941738" rx="29.2165352" ry="29.0941738"></ellipse>
                <g id="Page-1" transform="translate(11.054905, 12.581264)">
                    <mask id="mask-2" sketch:name="Clip 2" fill="white">
                        <use xlink:href="#path-1"></use>
                    </mask>
                    <g id="Clip-2"></g>
                    <path d="M37.0098485,18.263042 C37.0098485,16.7045378 36.0212242,15.3890094 34.639361,14.8684596 C33.8015571,6.73860382 26.8859243,0.376415703 18.5047269,0.376415703 C10.1243191,0.376415703 3.20868624,6.73860382 2.37088235,14.8676732 C0.988229562,15.3882231 -0.000394818043,16.7045378 -0.000394818043,18.263042 C-0.000394818043,20.258745 1.61125243,21.8746512 3.60745246,21.9045317 L3.60745246,22.3944146 C3.60745246,23.2216328 4.28180168,23.8931577 5.11328848,23.8931577 L7.21372047,23.8931577 C8.04520726,23.8931577 8.71955648,23.2216328 8.71955648,22.3944146 L8.71955648,14.1316693 C8.71955648,13.3044511 8.04520726,12.6329262 7.21372047,12.6329262 L5.2254168,12.6329262 C6.91918621,6.92024582 12.22712,2.73540277 18.5047269,2.73540277 C24.7831234,2.73540277 30.0910572,6.92024582 31.7848266,12.6329262 L29.7957333,12.6329262 C28.9650361,12.6329262 28.2906869,13.3044511 28.2906869,14.1316693 L28.2906869,22.3944146 C28.2906869,23.2216328 28.9650361,23.8931577 29.7957333,23.8931577 L30.197658,23.8931577 C28.2061958,27.017243 24.9994837,29.2983834 21.2352884,30.0509003 C20.7117597,29.0766387 19.6923395,28.4059 18.5047269,28.4059 C16.788058,28.4059 15.3959296,29.7921981 15.3959296,31.5024637 C15.3959296,33.211943 16.788058,34.598241 18.5047269,34.598241 C19.9063309,34.598241 21.0773612,33.6688001 21.4658622,32.3996651 C27.2159922,31.3381209 31.8985342,27.2499963 33.7991882,21.8597109 C35.6058756,21.6356071 37.0098485,20.1227101 37.0098485,18.263042" id="Fill-1" fill="#FFFFFF" sketch:type="MSShapeGroup" mask="url(#mask-2)"></path>
                </g>
            </g>
        </g>
    </g>
</svg>